…
``` r
data <- read_tsv("../data/tables/example_dataset_4.tsv") %>%
print(n = 10)
```

    ## Parsed with column specification:
    ## cols(
    ##   strain = col_character(),
    ##   yfp = col_integer(),
    ##   rfp = col_integer(),
    ##   replicate = col_integer()
    ## )

    ## # A tibble: 74 x 4
    ##    strain    yfp   rfp replicate
    ##    <chr>   <int> <int>     <int>
    ##  1 schp677  4123 20661         1
    ##  2 schp678  4550 21437         1
    ##  3 schp675  3880 21323         1
    ##  4 schp676  2863 20668         1
    ##  5 schp687  4767 20995         1
    ##  6 schp688  1274 20927         1
    ##  7 schp679  2605 20840         1
    ##  8 schp680  1175 20902         1
    ##  9 schp681  3861 20659         1
    ## 10 schp683  9949 25406         1
    ## # ... with 64 more rows

``` r
data %>%
group_by(strain) %>%
print(n = 10)
```

    ## # A tibble: 74 x 4
    ## # Groups:   strain [16]
    ##    strain    yfp   rfp replicate
    ##    <chr>   <int> <int>     <int>
    ##  1 schp677  4123 20661         1
    ##  2 schp678  4550 21437         1
    ##  3 schp675  3880 21323         1
    ##  4 schp676  2863 20668         1
    ##  5 schp687  4767 20995         1
    ##  6 schp688  1274 20927         1
    ##  7 schp679  2605 20840         1
    ##  8 schp680  1175 20902         1
    ##  9 schp681  3861 20659         1
    ## 10 schp683  9949 25406         1
    ## # ... with 64 more rows
…
